{
	"info": {
		"_postman_id": "8c76718d-7170-4f72-87d5-2b6bf22024fa",
		"name": "developer",
		"schema": "https://schema.getpostman.com/json/collection/v2.1.0/collection.json"
	},
	"item": [
		{
			"name": "index",
			"request": {
				"method": "GET",
				"header": [],
				"url": {
					"raw": "http://localhost:8085/developers/index",
					"protocol": "http",
					"host": [
						"localhost"
					],
					"port": "8085",
					"path": [
						"developers",
						"index"
					]
				}
			},
			"response": []
		},
		{
			"name": "show",
			"event": [
				{
					"listen": "prerequest",
					"script": {
						"exec": [
							"pm.environment.get(\"variable_key\");"
						],
						"type": "text/javascript"
					}
				}
			],
			"request": {
				"method": "GET",
				"header": [],
				"url": {
					"raw": "http://localhost:8085/developers/show?id=1",
					"protocol": "http",
					"host": [
						"localhost"
					],
					"port": "8085",
					"path": [
						"developers",
						"show"
					],
					"query": [
						{
							"key": "id",
							"value": "1"
						}
					]
				}
			},
			"response": []
		},
		{
			"name": "save",
			"request": {
				"method": "POST",
				"header": [],
				"body": {
					"mode": "raw",
					"raw": "{\n  \"idlevel\": 1,\n  \"name\": \"Romulo Vieira\",\n  \"gender\": \"M\",\n  \"birthdate\": \"2023-01-18\",\n  \"hobby\": \"Jogar Bola\"\n}",
					"options": {
						"raw": {
							"language": "json"
						}
					}
				},
				"url": {
					"raw": "http://localhost:8085/developers/save",
					"protocol": "http",
					"host": [
						"localhost"
					],
					"port": "8085",
					"path": [
						"developers",
						"save"
					]
				}
			},
			"response": []
		},
		{
			"name": "edit",
			"request": {
				"method": "PUT",
				"header": [],
				"body": {
					"mode": "raw",
					"raw": "{\n    \"idlevel\": 1,\n    \"name\": \"Joas Vieira\",\n    \"gender\": \"M\",\n    \"birthdate\": \"1999-06-20\",\n    \"hobby\": \"play\"\n    \n}",
					"options": {
						"raw": {
							"language": "json"
						}
					}
				},
				"url": {
					"raw": "http://localhost:8085/developers/edit/4",
					"protocol": "http",
					"host": [
						"localhost"
					],
					"port": "8085",
					"path": [
						"developers",
						"edit",
						"4"
					]
				}
			},
			"response": []
		},
		{
			"name": "destroy",
			"request": {
				"method": "DELETE",
				"header": [],
				"body": {
					"mode": "raw",
					"raw": "",
					"options": {
						"raw": {
							"language": "json"
						}
					}
				},
				"url": {
					"raw": "http://localhost:8085/developers/destroy/4",
					"protocol": "http",
					"host": [
						"localhost"
					],
					"port": "8085",
					"path": [
						"developers",
						"destroy",
						"4"
					]
				}
			},
			"response": []
		}
	]
}